<?xml version="1.0" encoding="UTF-8"?>
<svg width="81px" height="52px" viewBox="0 0 81 52" version="1.1" xmlns="http://www.w3.org/2000/svg">
    <!-- Generator: Sketch 63.1 (92452) - https://sketch.com -->
    <title>VDMA_Logo_neu_weiss_RGB</title>
    <desc>Created with Sketch.</desc>
    <g id="VDMA_Logo_neu_weiss_RGB" stroke="none" stroke-width="1" fill="none" fill-rule="evenodd">
        <g>
            <path d="M16.599,16.664 C12.833,20.428 10.675,25.19 10.12,30.1 C10.11,30.225 10.204,30.335 10.329,30.345 C10.442,30.354 10.541,30.278 10.568,30.172 L10.59,30.1 C11.861,25.788 14.316,21.562 17.907,17.972 C21.497,14.381 25.723,11.926 30.035,10.656 L30.107,10.633 C30.214,10.607 30.289,10.507 30.28,10.395 C30.27,10.269 30.16,10.175 30.035,10.186 C25.126,10.74 20.363,12.899 16.599,16.664" id="Fill-1" fill="#EB8B31"></path>
            <path d="M30.035,13.399 C25.946,13.938 21.995,15.777 18.853,18.919 C15.712,22.06 13.873,26.011 13.334,30.1 C13.316,30.246 13.42,30.377 13.566,30.393 C13.692,30.405 13.809,30.328 13.849,30.213 L13.891,30.1 C15.102,26.604 17.206,23.182 20.161,20.227 C23.117,17.271 26.539,15.167 30.035,13.956 L30.148,13.914 C30.264,13.874 30.341,13.758 30.328,13.632 C30.312,13.486 30.181,13.382 30.035,13.399" id="Fill-2" fill="#EB8B31"></path>
            <path d="M30.035,0.863747484 C22.744,1.446 15.614,4.525 10.037,10.102 C4.459,15.679 1.381,22.809 0.799,30.1 C0.794,30.158 0.838,30.21 0.897,30.215 C0.953,30.22 1.002,30.18 1.011,30.125 L1.015,30.1 C2.143,23.226 5.466,16.477 10.938,11.004 C16.412,5.532 23.161,2.208 30.035,1.081 L30.06,1.076 C30.115,1.068 30.154,1.019 30.1502818,0.962 C30.145,0.904 30.093,0.86 30.035,0.863747484" id="Fill-3" fill="#EB8B31"></path>
            <path d="M30.035,4.064 L30.035,4.064 C23.562,4.639 17.247,7.403 12.291,12.357 C7.337,17.312 4.574,23.626 3.999,30.1 C3.991,30.165 4.038,30.224 4.103,30.23 C4.166,30.237 4.222,30.194 4.234,30.133 L4.24,30.1 C5.348,24.043 8.348,18.105 13.193,13.259 C18.04,8.413 23.978,5.413 30.035,4.306 L30.068,4.299 C30.13,4.288 30.173,4.231 30.166,4.168 C30.159,4.103 30.1,4.056 30.035,4.064" id="Fill-4" fill="#EB8B31"></path>
            <path d="M35.137,51.902 C39.226,51.363 43.177,49.524 46.318,46.383 C49.46,43.241 51.299,39.291 51.838,35.202 C51.855,35.056 51.751,34.924 51.605,34.909 C51.479,34.896 51.363,34.973 51.322,35.088 L51.281,35.202 C50.07,38.698 47.966,42.119 45.01,45.075 C42.055,48.03 38.633,50.135 35.137,51.346 L35.023,51.387 C34.908,51.428 34.831,51.543 34.844,51.67 C34.86,51.815 34.991,51.92 35.137,51.902" id="Fill-5" fill="#EB8B31"></path>
            <path d="M35.137,48.68 L35.137,48.68 C38.405,48.162 41.545,46.647 44.063,44.128 C46.582,41.609 48.098,38.469 48.616,35.202 L48.616,35.201 C48.644,35.026 48.525,34.863 48.352,34.836 C48.201,34.812 48.06,34.897 48.004,35.033 L47.933,35.202 C46.808,37.883 45.071,40.504 42.755,42.819 C40.439,45.136 37.818,46.872 35.137,47.997 L34.968,48.068 C34.833,48.124 34.748,48.266 34.771,48.415 C34.798,48.59 34.962,48.708 35.137,48.68" id="Fill-6" fill="#EB8B31"></path>
            <path d="M34.035,32.649 L31.118,32.65 L26.547,19.895 L29.31,19.895 L31.856,27.358 C32.11,28.076 32.402,28.927 32.635,29.853 L32.673,29.852 C32.867,28.983 33.082,28.283 33.453,27.207 L36.039,19.895 L38.624,19.895 L34.035,32.649" id="Fill-7" fill="#FFFFFE"></path>
            <path d="M50.543,26.054 C50.543,21.577 47.957,19.819 43.893,19.819 C42.277,19.819 40.683,19.876 39.653,19.914 L39.654,32.63 C40.762,32.668 41.947,32.724 43.31,32.724 C47.587,32.724 50.543,30.439 50.543,26.054 Z M47.82,26.243 C47.82,29.266 46.031,30.627 43.56,30.6260193 C43.057,30.627 42.531,30.589 42.182,30.533 L42.182,21.936 C42.59,21.898 43.135,21.878 43.718,21.878 C46.713,21.878 47.82,23.504 47.82,26.243 L47.82,26.243 Z" id="Fill-8" fill="#FFFFFE"></path>
            <path d="M64.657,32.65 L63.723,26.565 C63.528,25.355 63.411,24.411 63.314,23.523 L63.275,23.523 C63.1,24.335 62.887,25.242 62.556,26.243 L60.477,32.65 L57.967,32.649 L55.964,26.734 C55.613,25.695 55.284,24.542 55.129,23.522 L55.09,23.522 C55.012,24.656 54.876,25.657 54.722,26.771 L53.98,32.649 L51.414,32.649 L53.437,19.895 L56.394,19.895 L58.589,26.452 C58.899,27.358 59.135,28.227 59.309,29.134 L59.347,29.134 C59.543,28.153 59.756,27.435 60.087,26.488 L62.342,19.895 L65.278,19.895 L67.32,32.649 L64.657,32.65" id="Fill-9" fill="#FFFFFE"></path>
            <path d="M80.083,32.649 L75.397,19.895 L72.539,19.895 L67.948,32.65 L70.496,32.649 L71.41,30.042 L76.37,30.042 L77.284,32.649 L80.083,32.649 Z M75.709,28.096 L72.052,28.095 L73.238,24.845 C73.49,24.109 73.705,23.371 73.862,22.711 L73.88,22.711 C74.037,23.429 74.23,24.051 74.482,24.751 L75.709,28.096 L75.709,28.096 Z" id="Fill-10" fill="#FFFFFE"></path>
        </g>
    </g>
</svg>